Capítulo 4 Construcción de muestra | Análisis Muestral de Encuestas Origen-Destino
…
Duplicidad: Existen elementos repetidos

Sobre-representatividad: Existen elementos en el marco que no pertenecen a la población objetivo

Sub-representatividad: Existen elementos pertenecientes a la población objetivo que no se encuentran representados en el marco

Ante estos problemas, es necesario realizar una limpieza de los datos disponibles para obtener un conjunto lo más adecuado para extraer estos problemas. A continuación se muestra el proceso de limpieza a seguir usando el software estadístico R.

library(readr)
library(dplyr)

cnpv <- read_csv("data/conjunto_de_datos_ageb_urbana_09_cpv2020.csv", na = c("", NA, "*"))
cnpv

## # A tibble: 68,941 × 230
##    ENTIDAD NOM_ENT  MUN   NOM_MUN LOC   NOM_LOC AGEB  MZA   POBTOT POBFEM POBMAS
##    <chr>   <chr>    <chr> <chr>   <chr> <chr>   <chr> <chr>  <dbl>  <dbl>  <dbl>
##  1 09      Ciudad … 000   Total … 0000  Total … 0000  000   9.21e6 4.81e6 4.40e6
##  2 09      Ciudad … 002   Azcapo… 0000  Total … 0000  000   4.32e5 2.27e5 2.05e5
##  3 09      Ciudad … 002   Azcapo… 0001  Total … 0000  000   4.32e5 2.27e5 2.05e5
##  4 09      Ciudad … 002   Azcapo… 0001  Total … 0010  000   3.18e3 1.70e3 1.49e3
##  5 09      Ciudad … 002   Azcapo… 0001  Azcapo… 0010  001   1.59e2 8.6 e1 7.3 e1
##  6 09      Ciudad … 002   Azcapo… 0001  Azcapo… 0010  002   1.45e2 8   e1 6.5 e1
##  7 09      Ciudad … 002   Azcapo… 0001  Azcapo… 0010  003   1.24e2 6.4 e1 6   e1
##  8 09      Ciudad … 002   Azcapo… 0001  Azcapo… 0010  004   1.58e2 8.3 e1 7.5 e1
##  9 09      Ciudad … 002   Azcapo… 0001  Azcapo… 0010  005   1.54e2 8.6 e1 6.8 e1
## 10 09      Ciudad … 002   Azcapo… 0001  Azcapo… 0010  006   1.53e2 8.6 e1 6.7 e1
## # … with 68,931 more rows, and 219 more variables: P_0A2 <dbl>, P_0A2_F <dbl>,
## #   P_0A2_M <dbl>, P_3YMAS <dbl>, P_3YMAS_F <dbl>, P_3YMAS_M <dbl>,
## #   P_5YMAS <dbl>, P_5YMAS_F <dbl>, P_5YMAS_M <dbl>, P_12YMAS <dbl>,
## #   P_12YMAS_F <dbl>, P_12YMAS_M <dbl>, P_15YMAS <dbl>, P_15YMAS_F <dbl>,
## #   P_15YMAS_M <dbl>, P_18YMAS <dbl>, P_18YMAS_F <dbl>, P_18YMAS_M <dbl>,
## #   P_3A5 <dbl>, P_3A5_F <dbl>, P_3A5_M <dbl>, P_6A11 <dbl>, P_6A11_F <dbl>,
## #   P_6A11_M <dbl>, P_8A14 <dbl>, P_8A14_F <dbl>, P_8A14_M <dbl>, …
…
marco

## # A tibble: 7,344 × 9
##    ENTIDAD MUN   NOM_MUN           LOC   AGEB  MZA   POBTOT P_18YMAS VIVPAR_HAB
##    <chr>   <chr> <chr>             <chr> <chr> <chr>  <dbl>    <dbl>      <dbl>
##  1 09      005   Gustavo A. Madero 0001  0012  001      172      129         46
##  2 09      005   Gustavo A. Madero 0001  0012  002      150      107         43
##  3 09      005   Gustavo A. Madero 0001  0012  003      135      105         50
##  4 09      005   Gustavo A. Madero 0001  0012  004      119       97         45
##  5 09      005   Gustavo A. Madero 0001  0012  005      195      141         61
##  6 09      005   Gustavo A. Madero 0001  0012  006      226      165         62
##  7 09      005   Gustavo A. Madero 0001  0012  007      186      127         49
##  8 09      005   Gustavo A. Madero 0001  0012  008       98       70         36
##  9 09      005   Gustavo A. Madero 0001  0012  010      178      130         48
## 10 09      005   Gustavo A. Madero 0001  0012  011      135      101         44
## # … with 7,334 more rows
…
Estrato 4: 56 o más viviendas

marco <- marco %>% 
  mutate(estrato = case_when(
    VIVPAR_HAB <= 35 ~ "gpo1",
    VIVPAR_HAB <= 55 ~ "gpo2",
    VIVPAR_HAB <= 80 ~ "gpo3",
    TRUE ~ "gpo4",
  )) %>% 
  arrange(estrato) %>% 
  mutate(ID_unit = 1:nrow(marco))

marco

## # A tibble: 7,344 × 11
##    ENTIDAD MUN   NOM_MUN    LOC   AGEB  MZA   POBTOT P_18YMAS VIVPAR_HAB estrato
##    <chr>   <chr> <chr>      <chr> <chr> <chr>  <dbl>    <dbl>      <dbl> <chr>  
##  1 09      005   Gustavo A… 0001  0012  012       98       77         32 gpo1   
##  2 09      005   Gustavo A… 0001  0012  018       83       62         32 gpo1   
##  3 09      005   Gustavo A… 0001  0012  024       98       71         20 gpo1   
##  4 09      005   Gustavo A… 0001  0012  025      144      107         26 gpo1   
##  5 09      005   Gustavo A… 0001  0012  026       83       64         21 gpo1   
##  6 09      005   Gustavo A… 0001  0012  035       98       69         27 gpo1   
##  7 09      005   Gustavo A… 0001  0012  036      107       82         35 gpo1   
##  8 09      005   Gustavo A… 0001  0012  037       43       32         14 gpo1   
##  9 09      005   Gustavo A… 0001  0027  001      145      112         32 gpo1   
## 10 09      005   Gustavo A… 0001  0027  004       88       71         26 gpo1   
## # … with 7,334 more rows, and 1 more variable: ID_unit <int>
…
## 
## Population total and number of selected units: 7344 2000

muestra_1

## # A tibble: 2,000 × 2
##    ID_unit  Prob
##      <int> <dbl>
##  1       7 0.272
##  2       8 0.272
##  3       9 0.272
##  4      13 0.272
##  5      14 0.272
##  6      16 0.272
##  7      17 0.272
##  8      18 0.272
##  9      27 0.272
## 10      28 0.272
## # … with 1,990 more rows
…
## 
## Population total and number of selected units: 7344 2000

Observemos cuántas unidades fueron seleccionadas más de una vez:

muestra_2

## # A tibble: 1,733 × 3
##    ID_unit Replicates  Prob
##      <int>      <int> <dbl>
##  1       4          2 0.238
##  2      13          1 0.238
##  3      14          1 0.238
##  4      18          1 0.238
##  5      20          2 0.238
##  6      24          1 0.238
##  7      32          2 0.238
##  8      33          2 0.238
##  9      36          1 0.238
## 10      37          1 0.238
## # … with 1,723 more rows
…
